Simulation_Results/rv32isc_transcript.txt
=============================================================================
WARNING: tb_riscv_rv32isc_alu.v:271: unknown format $display<% >.
RISC-V RV32ISC ALU COMPREHENSIVE TESTBENCH - 100<% >COVERAGE
=============================================================================
VCD info: dumpfile riscv_alu_test.vcd opened for output.
Time=0 | Enable=0 | Ready=0 | Result=0x00000000 | Error=0 | Flags=Z:0 C:0 O:0 S:0
Starting RV32I Base Instruction Tests...
Time=14000 | Enable=1 | Ready=0 | Result=0x00000000 | Error=0 | Flags=Z:0 C:0 O:0 S:0
Time=15000 | Enable=1 | Ready=1 | Result=0x00000008 | Error=0 | Flags=Z:0 C:0 O:0 S:0
[PASS] ADD Basic: Result=0x00000008, Flags=Z:0 C:0 O:0 S:0
Time=17000 | Enable=0 | Ready=1 | Result=0x00000008 | Error=0 | Flags=Z:0 C:0 O:0 S:0
Time=19000 | Enable=1 | Ready=1 | Result=0x00000008 | Error=0 | Flags=Z:0 C:0 O:0 S:0
Time=21000 | Enable=1 | Ready=1 | Result=0x00000000 | Error=0 | Flags=Z:1 C:0 O:0 S:0
[PASS] ADD Zero: Result=0x00000000, Flags=Z:1 C:0 O:0 S:0
Time=23000 | Enable=0 | Ready=1 | Result=0x00000000 | Error=0 | Flags=Z:1 C:0 O:0 S:0
Time=25000 | Enable=1 | Ready=1 | Result=0x00000000 | Error=0 | Flags=Z:1 C:0 O:0 S:0
Time=27000 | Enable=1 | Ready=1 | Result=0x00000000 | Error=0 | Flags=Z:1 C:1 O:0 S:0
[PASS] ADD Carry: Result=0x00000000, Flags=Z:1 C:1 O:0 S:0
Time=29000 | Enable=0 | Ready=1 | Result=0x00000000 | Error=0 | Flags=Z:1 C:1 O:0 S:0
Time=31000 | Enable=1 | Ready=1 | Result=0x00000000 | Error=0 | Flags=Z:1 C:1 O:0 S:0
Time=33000 | Enable=1 | Ready=1 | Result=0x80000000 | Error=0 | Flags=Z:0 C:0 O:1 S:1
[PASS] ADD Overflow: Result=0x80000000, Flags=Z:0 C:0 O:1 S:1
Time=35000 | Enable=0 | Ready=1 | Result=0x80000000 | Error=0 | Flags=Z:0 C:0 O:1 S:1
Time=37000 | Enable=1 | Ready=1 | Result=0x7ffffffe | Error=0 | Flags=Z:0 C:0 O:0 S:0
Time=39000 | Enable=1 | Ready=1 | Result=0x00000005 | Error=0 | Flags=Z:0 C:0 O:0 S:0
[PASS] SUB Basic: Result=0x00000005, Flags=Z:0 C:0 O:0 S:0
Time=41000 | Enable=0 | Ready=1 | Result=0x00000005 | Error=0 | Flags=Z:0 C:0 O:0 S:0
Time=43000 | Enable=1 | Ready=1 | Result=0x00000005 | Error=0 | Flags=Z:0 C:0 O:0 S:0
Time=45000 | Enable=1 | Ready=1 | Result=0x00000000 | Error=0 | Flags=Z:1 C:0 O:0 S:0
[PASS] SUB Zero: Result=0x00000000, Flags=Z:1 C:0 O:0 S:0
Time=47000 | Enable=0 | Ready=1 | Result=0x00000000 | Error=0 | Flags=Z:1 C:0 O:0 S:0
Time=49000 | Enable=1 | Ready=1 | Result=0x00000000 | Error=0 | Flags=Z:1 C:0 O:0 S:0
Time=51000 | Enable=1 | Ready=1 | Result=0xfffffffb | Error=0 | Flags=Z:0 C:1 O:0 S:1
[PASS] SUB Negative: Result=0xfffffffb, Flags=Z:0 C:1 O:0 S:1
Time=53000 | Enable=0 | Ready=1 | Result=0xfffffffb | Error=0 | Flags=Z:0 C:1 O:0 S:1
Time=55000 | Enable=1 | Ready=1 | Result=0x00000000 | Error=0 | Flags=Z:1 C:1 O:0 S:0
Time=57000 | Enable=1 | Ready=1 | Result=0x00000008 | Error=0 | Flags=Z:0 C:0 O:0 S:0
[PASS] ADDI Basic: Result=0x00000008, Flags=Z:0 C:0 O:0 S:0
Time=59000 | Enable=0 | Ready=1 | Result=0x00000008 | Error=0 | Flags=Z:0 C:0 O:0 S:0
Time=61000 | Enable=1 | Ready=1 | Result=0x00000008 | Error=0 | Flags=Z:0 C:0 O:0 S:0
Time=63000 | Enable=1 | Ready=1 | Result=0x00000003 | Error=0 | Flags=Z:0 C:1 O:0 S:0
[FAIL] ADDI Negative:
  Expected: Result=0x00000003, Flags=Z:0 C:0 O:0 S:0
  Actual:   Result=0x00000003, Flags=Z:0 C:1 O:0 S:0
Time=65000 | Enable=0 | Ready=1 | Result=0x00000003 | Error=0 | Flags=Z:0 C:1 O:0 S:0
Time=67000 | Enable=1 | Ready=1 | Result=0x40000000 | Error=0 | Flags=Z:0 C:0 O:0 S:0
Time=69000 | Enable=1 | Ready=1 | Result=0x00000010 | Error=0 | Flags=Z:0 C:0 O:0 S:0
[PASS] SLL Basic: Result=0x00000010, Flags=Z:0 C:0 O:0 S:0
Time=71000 | Enable=0 | Ready=1 | Result=0x00000010 | Error=0 | Flags=Z:0 C:0 O:0 S:0
Time=73000 | Enable=1 | Ready=1 | Result=0x00000000 | Error=0 | Flags=Z:1 C:0 O:0 S:0
Time=75000 | Enable=1 | Ready=1 | Result=0x00000010 | Error=0 | Flags=Z:0 C:0 O:0 S:0
[PASS] SLLI Basic: Result=0x00000010, Flags=Z:0 C:0 O:0 S:0
Time=77000 | Enable=0 | Ready=1 | Result=0x00000010 | Error=0 | Flags=Z:0 C:0 O:0 S:0
Time=79000 | Enable=1 | Ready=1 | Result=0x00000001 | Error=0 | Flags=Z:0 C:0 O:0 S:0
Time=81000 | Enable=1 | Ready=1 | Result=0x00000001 | Error=0 | Flags=Z:0 C:0 O:0 S:0
[PASS] SLT True: Result=0x00000001, Flags=Z:0 C:0 O:0 S:0
Time=83000 | Enable=0 | Ready=1 | Result=0x00000001 | Error=0 | Flags=Z:0 C:0 O:0 S:0
Time=85000 | Enable=1 | Ready=1 | Result=0x00000001 | Error=0 | Flags=Z:0 C:0 O:0 S:0
Time=87000 | Enable=1 | Ready=1 | Result=0x00000000 | Error=0 | Flags=Z:1 C:0 O:0 S:0
[PASS] SLT False: Result=0x00000000, Flags=Z:1 C:0 O:0 S:0
Time=89000 | Enable=0 | Ready=1 | Result=0x00000000 | Error=0 | Flags=Z:1 C:0 O:0 S:0
Time=91000 | Enable=1 | Ready=1 | Result=0x00000000 | Error=0 | Flags=Z:1 C:0 O:0 S:0
Time=93000 | Enable=1 | Ready=1 | Result=0x00000001 | Error=0 | Flags=Z:0 C:0 O:0 S:0
[PASS] SLT Negative: Result=0x00000001, Flags=Z:0 C:0 O:0 S:0
Time=95000 | Enable=0 | Ready=1 | Result=0x00000001 | Error=0 | Flags=Z:0 C:0 O:0 S:0
Time=97000 | Enable=1 | Ready=1 | Result=0x00000000 | Error=0 | Flags=Z:1 C:0 O:0 S:0
Time=99000 | Enable=1 | Ready=1 | Result=0x00000001 | Error=0 | Flags=Z:0 C:0 O:0 S:0
[PASS] SLTU True: Result=0x00000001, Flags=Z:0 C:0 O:0 S:0
Time=101000 | Enable=0 | Ready=1 | Result=0x00000001 | Error=0 | Flags=Z:0 C:0 O:0 S:0
Time=103000 | Enable=1 | Ready=1 | Result=0x00000001 | Error=0 | Flags=Z:0 C:0 O:0 S:0
Time=105000 | Enable=1 | Ready=1 | Result=0x00000000 | Error=0 | Flags=Z:1 C:0 O:0 S:0
[PASS] SLTU False: Result=0x00000000, Flags=Z:1 C:0 O:0 S:0
Time=107000 | Enable=0 | Ready=1 | Result=0x00000000 | Error=0 | Flags=Z:1 C:0 O:0 S:0
Time=109000 | Enable=1 | Ready=1 | Result=0xfffffffe | Error=0 | Flags=Z:0 C:0 O:0 S:1
Time=111000 | Enable=1 | Ready=1 | Result=0xffffffff | Error=0 | Flags=Z:0 C:0 O:0 S:1
[PASS] XOR Basic: Result=0xffffffff, Flags=Z:0 C:0 O:0 S:1
Time=113000 | Enable=0 | Ready=1 | Result=0xffffffff | Error=0 | Flags=Z:0 C:0 O:0 S:1
Time=115000 | Enable=1 | Ready=1 | Result=0xffffffff | Error=0 | Flags=Z:0 C:0 O:0 S:1
Time=117000 | Enable=1 | Ready=1 | Result=0x00000000 | Error=0 | Flags=Z:1 C:0 O:0 S:0
[PASS] XOR Zero: Result=0x00000000, Flags=Z:1 C:0 O:0 S:0
Time=119000 | Enable=0 | Ready=1 | Result=0x00000000 | Error=0 | Flags=Z:1 C:0 O:0 S:0
Time=121000 | Enable=1 | Ready=1 | Result=0x00000012 | Error=0 | Flags=Z:0 C:0 O:0 S:0
Time=123000 | Enable=1 | Ready=1 | Result=0x08000000 | Error=0 | Flags=Z:0 C:0 O:0 S:0
[PASS] SRL Basic: Result=0x08000000, Flags=Z:0 C:0 O:0 S:0
Time=125000 | Enable=0 | Ready=1 | Result=0x08000000 | Error=0 | Flags=Z:0 C:0 O:0 S:0
Time=127000 | Enable=1 | Ready=1 | Result=0xf8000000 | Error=0 | Flags=Z:0 C:0 O:0 S:1
Time=129000 | Enable=1 | Ready=1 | Result=0xf8000000 | Error=0 | Flags=Z:0 C:0 O:0 S:1
[PASS] SRA Basic: Result=0xf8000000, Flags=Z:0 C:0 O:0 S:1
Time=131000 | Enable=0 | Ready=1 | Result=0xf8000000 | Error=0 | Flags=Z:0 C:0 O:0 S:1
Time=133000 | Enable=1 | Ready=1 | Result=0x80000004 | Error=0 | Flags=Z:0 C:0 O:0 S:1
Time=135000 | Enable=1 | Ready=1 | Result=0xffffffff | Error=0 | Flags=Z:0 C:0 O:0 S:1
[PASS] OR Basic: Result=0xffffffff, Flags=Z:0 C:0 O:0 S:1
Time=137000 | Enable=0 | Ready=1 | Result=0xffffffff | Error=0 | Flags=Z:0 C:0 O:0 S:1
Time=139000 | Enable=1 | Ready=1 | Result=0xffffffff | Error=0 | Flags=Z:0 C:0 O:0 S:1
Time=141000 | Enable=1 | Ready=1 | Result=0x00000000 | Error=0 | Flags=Z:1 C:0 O:0 S:0
[PASS] OR Zero: Result=0x00000000, Flags=Z:1 C:0 O:0 S:0
Time=143000 | Enable=0 | Ready=1 | Result=0x00000000 | Error=0 | Flags=Z:1 C:0 O:0 S:0
Time=145000 | Enable=1 | Ready=1 | Result=0x00000000 | Error=0 | Flags=Z:1 C:0 O:0 S:0
Time=147000 | Enable=1 | Ready=1 | Result=0x00000000 | Error=0 | Flags=Z:1 C:0 O:0 S:0
[PASS] AND Basic: Result=0x00000000, Flags=Z:1 C:0 O:0 S:0
Time=149000 | Enable=0 | Ready=1 | Result=0x00000000 | Error=0 | Flags=Z:1 C:0 O:0 S:0
Time=151000 | Enable=1 | Ready=1 | Result=0x00000000 | Error=0 | Flags=Z:1 C:0 O:0 S:0
Time=153000 | Enable=1 | Ready=1 | Result=0x12345678 | Error=0 | Flags=Z:0 C:0 O:0 S:0
[PASS] AND Identity: Result=0x12345678, Flags=Z:0 C:0 O:0 S:0
Time=155000 | Enable=0 | Ready=1 | Result=0x12345678 | Error=0 | Flags=Z:0 C:0 O:0 S:0

Starting RV32M Extension Tests (Multiply/Divide)...
Time=157000 | Enable=1 | Ready=1 | Result=0x12345677 | Error=0 | Flags=Z:0 C:1 O:0 S:0
Time=159000 | Enable=1 | Ready=1 | Result=0x00000005 | Error=0 | Flags=Z:0 C:0 O:0 S:0
[FAIL] MUL TC-1:
  Expected: Result=0x00000006, Flags=Z:0 C:0 O:0 S:0
  Actual:   Result=0x00000005, Flags=Z:0 C:0 O:0 S:0
Time=161000 | Enable=0 | Ready=1 | Result=0x00000005 | Error=0 | Flags=Z:0 C:0 O:0 S:0
Time=163000 | Enable=1 | Ready=1 | Result=0x00000005 | Error=0 | Flags=Z:0 C:0 O:0 S:0
Time=165000 | Enable=1 | Ready=1 | Result=0x99999999 | Error=0 | Flags=Z:0 C:0 O:0 S:1
[FAIL] MUL Large:
  Expected: Result=0x70b88d78, Flags=Z:0 C:0 O:0 S:0
  Actual:   Result=0x99999999, Flags=Z:0 C:0 O:0 S:1
Time=167000 | Enable=0 | Ready=1 | Result=0x99999999 | Error=0 | Flags=Z:0 C:0 O:0 S:1
Time=169000 | Enable=1 | Ready=1 | Result=0x99999999 | Error=0 | Flags=Z:0 C:0 O:0 S:1
Time=171000 | Enable=1 | Ready=1 | Result=0x12345678 | Error=0 | Flags=Z:0 C:0 O:0 S:0
[FAIL] MUL Zero:
  Expected: Result=0x00000000, Flags=Z:1 C:0 O:0 S:0
  Actual:   Result=0x12345678, Flags=Z:0 C:0 O:0 S:0
Time=173000 | Enable=0 | Ready=1 | Result=0x12345678 | Error=0 | Flags=Z:0 C:0 O:0 S:0
Time=175000 | Enable=1 | Ready=1 | Result=0x12345678 | Error=0 | Flags=Z:0 C:0 O:0 S:0
Time=177000 | Enable=1 | Ready=1 | Result=0x80000000 | Error=0 | Flags=Z:0 C:0 O:0 S:1
[FAIL] MULH Basic:
  Expected: Result=0x40000000, Flags=Z:0 C:0 O:0 S:0
  Actual:   Result=0x80000000, Flags=Z:0 C:0 O:0 S:1
Time=179000 | Enable=0 | Ready=1 | Result=0x80000000 | Error=0 | Flags=Z:0 C:0 O:0 S:1
Time=181000 | Enable=1 | Ready=1 | Result=0x00000000 | Error=0 | Flags=Z:1 C:0 O:0 S:0
Time=183000 | Enable=1 | Ready=1 | Result=0x00000001 | Error=0 | Flags=Z:0 C:0 O:0 S:0
[FAIL] MULHSU Basic:
  Expected: Result=0xffffffff, Flags=Z:0 C:0 O:0 S:1
  Actual:   Result=0x00000001, Flags=Z:0 C:0 O:0 S:0
Time=185000 | Enable=0 | Ready=1 | Result=0x00000001 | Error=0 | Flags=Z:0 C:0 O:0 S:0
Time=187000 | Enable=1 | Ready=1 | Result=0x00000000 | Error=0 | Flags=Z:1 C:0 O:0 S:0
Time=189000 | Enable=1 | Ready=1 | Result=0x00000000 | Error=0 | Flags=Z:1 C:0 O:0 S:0
[FAIL] MULHU Basic:
  Expected: Result=0xfffffffe, Flags=Z:0 C:0 O:0 S:1
  Actual:   Result=0x00000000, Flags=Z:1 C:0 O:0 S:0
Time=191000 | Enable=0 | Ready=1 | Result=0x00000000 | Error=0 | Flags=Z:1 C:0 O:0 S:0
Time=193000 | Enable=1 | Ready=1 | Result=0x00000000 | Error=0 | Flags=Z:1 C:0 O:0 S:0
Time=195000 | Enable=1 | Ready=1 | Result=0x00000005 | Error=0 | Flags=Z:0 C:0 O:0 S:0
[FAIL] DIV TC-9:
  Expected: Result=0x00000002, Flags=Z:0 C:0 O:0 S:0
  Actual:   Result=0x00000005, Flags=Z:0 C:0 O:0 S:0
Time=197000 | Enable=0 | Ready=1 | Result=0x00000005 | Error=0 | Flags=Z:0 C:0 O:0 S:0
Time=199000 | Enable=1 | Ready=1 | Result=0x00000005 | Error=0 | Flags=Z:0 C:0 O:0 S:0
Time=201000 | Enable=1 | Ready=1 | Result=0xfffffff5 | Error=0 | Flags=Z:0 C:0 O:0 S:1
[FAIL] DIV Negative:
  Expected: Result=0xfffffffd, Flags=Z:0 C:0 O:0 S:1
  Actual:   Result=0xfffffff5, Flags=Z:0 C:0 O:0 S:1
Time=203000 | Enable=0 | Ready=1 | Result=0xfffffff5 | Error=0 | Flags=Z:0 C:0 O:0 S:1
Time=205000 | Enable=1 | Ready=1 | Result=0xfffffff5 | Error=0 | Flags=Z:0 C:0 O:0 S:1
Time=207000 | Enable=1 | Ready=1 | Result=0x00000006 | Error=0 | Flags=Z:0 C:0 O:0 S:0
[FAIL] DIV by Zero:
  Expected: Result=0xffffffff, Flags=Z:0 C:0 O:0 S:1
  Actual:   Result=0x00000006, Flags=Z:0 C:0 O:0 S:0
Time=209000 | Enable=0 | Ready=1 | Result=0x00000006 | Error=0 | Flags=Z:0 C:0 O:0 S:0
Time=211000 | Enable=1 | Ready=1 | Result=0x00000006 | Error=0 | Flags=Z:0 C:0 O:0 S:0
Time=213000 | Enable=1 | Ready=1 | Result=0x00000001 | Error=0 | Flags=Z:0 C:0 O:0 S:0
[FAIL] DIVU Basic:
  Expected: Result=0x00000003, Flags=Z:0 C:0 O:0 S:0
  Actual:   Result=0x00000001, Flags=Z:0 C:0 O:0 S:0
Time=215000 | Enable=0 | Ready=1 | Result=0x00000001 | Error=0 | Flags=Z:0 C:0 O:0 S:0
Time=217000 | Enable=1 | Ready=1 | Result=0x00000001 | Error=0 | Flags=Z:0 C:0 O:0 S:0
Time=219000 | Enable=1 | Ready=1 | Result=0x0000000a | Error=0 | Flags=Z:0 C:0 O:0 S:0
[FAIL] DIVU by Zero:
  Expected: Result=0xffffffff, Flags=Z:0 C:0 O:0 S:1
  Actual:   Result=0x0000000a, Flags=Z:0 C:0 O:0 S:0
Time=221000 | Enable=0 | Ready=1 | Result=0x0000000a | Error=0 | Flags=Z:0 C:0 O:0 S:0
Time=223000 | Enable=1 | Ready=1 | Result=0x0000000a | Error=0 | Flags=Z:0 C:0 O:0 S:0
Time=225000 | Enable=1 | Ready=1 | Result=0x0000000b | Error=0 | Flags=Z:0 C:0 O:0 S:0
[FAIL] REM Basic:
  Expected: Result=0x00000001, Flags=Z:0 C:0 O:0 S:0
  Actual:   Result=0x0000000b, Flags=Z:0 C:0 O:0 S:0
Time=227000 | Enable=0 | Ready=1 | Result=0x0000000b | Error=0 | Flags=Z:0 C:0 O:0 S:0
Time=229000 | Enable=1 | Ready=1 | Result=0x00000002 | Error=0 | Flags=Z:0 C:0 O:0 S:0
Time=231000 | Enable=1 | Ready=1 | Result=0x00000002 | Error=0 | Flags=Z:0 C:0 O:0 S:0
[FAIL] REMU Basic:
  Expected: Result=0x00000001, Flags=Z:0 C:0 O:0 S:0
  Actual:   Result=0x00000002, Flags=Z:0 C:0 O:0 S:0
Time=233000 | Enable=0 | Ready=1 | Result=0x00000002 | Error=0 | Flags=Z:0 C:0 O:0 S:0

Starting RV32F Extension Tests (Single Precision FP)...
Time=235000 | Enable=1 | Ready=1 | Result=0x0000001e | Error=0 | Flags=Z:0 C:0 O:0 S:0
Time=237000 | Enable=1 | Ready=1 | Result=0x7f800000 | Error=0 | Flags=Z:0 C:0 O:0 S:0
[FAIL] FADD.S TC-2:
  Expected: Result=0x40400000, Flags=Z:0 C:0 O:0 S:0
  Actual:   Result=0x7f800000, Flags=Z:0 C:0 O:0 S:0
Time=239000 | Enable=0 | Ready=1 | Result=0x7f800000 | Error=0 | Flags=Z:0 C:0 O:0 S:0
Time=241000 | Enable=1 | Ready=1 | Result=0x7f800000 | Error=0 | Flags=Z:0 C:0 O:0 S:0
Time=243000 | Enable=1 | Ready=1 | Result=0x00000000 | Error=0 | Flags=Z:1 C:0 O:0 S:0
[PASS] FADD.S Zero: Result=0x00000000, Flags=Z:1 C:0 O:0 S:0
Time=245000 | Enable=0 | Ready=1 | Result=0x00000000 | Error=0 | Flags=Z:1 C:0 O:0 S:0
Time=247000 | Enable=1 | Ready=1 | Result=0x00000000 | Error=0 | Flags=Z:1 C:0 O:0 S:0
Time=249000 | Enable=1 | Ready=1 | Result=0x0000000a | Error=0 | Flags=Z:0 C:0 O:0 S:0
[PASS] FSUB.S TC-11: Result=0x0000000a, Flags=Z:0 C:0 O:0 S:0
Time=251000 | Enable=0 | Ready=1 | Result=0x0000000a | Error=0 | Flags=Z:0 C:0 O:0 S:0
Time=253000 | Enable=1 | Ready=1 | Result=0x00000000 | Error=0 | Flags=Z:1 C:0 O:0 S:0
Time=255000 | Enable=1 | Ready=1 | Result=0x00000000 | Error=0 | Flags=Z:1 C:0 O:0 S:0
[FAIL] FMUL.S TC-8:
  Expected: Result=0x40000000, Flags=Z:0 C:0 O:0 S:0
  Actual:   Result=0x00000000, Flags=Z:1 C:0 O:0 S:0
Time=257000 | Enable=0 | Ready=1 | Result=0x00000000 | Error=0 | Flags=Z:1 C:0 O:0 S:0
Time=259000 | Enable=1 | Ready=1 | Result=0x00000000 | Error=0 | Flags=Z:1 C:0 O:0 S:0
Time=261000 | Enable=1 | Ready=1 | Result=0x00000000 | Error=0 | Flags=Z:1 C:0 O:0 S:0
[FAIL] FDIV.S Basic:
  Expected: Result=0x40000000, Flags=Z:0 C:0 O:0 S:0
  Actual:   Result=0x00000000, Flags=Z:1 C:0 O:0 S:0
Time=263000 | Enable=0 | Ready=1 | Result=0x00000000 | Error=0 | Flags=Z:1 C:0 O:0 S:0

Starting RV32D Extension Tests (Double Precision FP)...
Time=265000 | Enable=1 | Ready=1 | Result=0x7f800000 | Error=0 | Flags=Z:0 C:0 O:0 S:0
Time=267000 | Enable=1 | Ready=1 | Result=0x40000000 | Error=0 | Flags=Z:0 C:0 O:0 S:0
[PASS] FADD.D TC-3: Double precision add completed
Time=269000 | Enable=0 | Ready=1 | Result=0x40000000 | Error=0 | Flags=Z:0 C:0 O:0 S:0
Time=271000 | Enable=1 | Ready=1 | Result=0x00000000 | Error=0 | Flags=Z:1 C:0 O:0 S:0
Time=273000 | Enable=1 | Ready=1 | Result=0x00000000 | Error=0 | Flags=Z:1 C:0 O:0 S:0
[INFO] FMUL.D TC-10: Double precision multiply completed
Time=275000 | Enable=0 | Ready=1 | Result=0x00000000 | Error=0 | Flags=Z:1 C:0 O:0 S:0

Starting Custom Extension Tests (Matrix, MAC, Pooling)...
Time=277000 | Enable=1 | Ready=1 | Result=0x40000000 | Error=0 | Flags=Z:0 C:0 O:0 S:0
Time=279000 | Enable=1 | Ready=1 | Result=0x00000003 | Error=0 | Flags=Z:0 C:0 O:0 S:0
[FAIL] MatMul TC-4: Expected=0x00000005, Actual=0x00000003
Time=281000 | Enable=0 | Ready=1 | Result=0x00000003 | Error=0 | Flags=Z:0 C:0 O:0 S:0
Time=283000 | Enable=1 | Ready=1 | Result=0x00000010 | Error=0 | Flags=Z:0 C:0 O:0 S:0
Time=285000 | Enable=1 | Ready=1 | Result=0x00000010 | Error=0 | Flags=Z:0 C:0 O:0 S:0
[PASS] MatMul Complex: Matrix Result=0x00000010
Time=287000 | Enable=0 | Ready=1 | Result=0x00000010 | Error=0 | Flags=Z:0 C:0 O:0 S:0
Time=289000 | Enable=1 | Ready=1 | Result=0x00000000 | Error=0 | Flags=Z:1 C:0 O:0 S:0
Time=291000 | Enable=1 | Ready=1 | Result=0x00000006 | Error=0 | Flags=Z:0 C:0 O:0 S:0
[FAIL] MAC TC-5:
  Expected: Result=0x0000000b, Flags=Z:0 C:0 O:0 S:0
  Actual:   Result=0x00000006, Flags=Z:0 C:0 O:0 S:0
Time=293000 | Enable=0 | Ready=1 | Result=0x00000006 | Error=0 | Flags=Z:0 C:0 O:0 S:0
Time=295000 | Enable=1 | Ready=1 | Result=0x0000000c | Error=0 | Flags=Z:0 C:0 O:0 S:0
Time=297000 | Enable=1 | Ready=1 | Result=0x00000028 | Error=0 | Flags=Z:0 C:0 O:0 S:0
[FAIL] MAC Zero Acc:
  Expected: Result=0x0000001c, Flags=Z:0 C:0 O:0 S:0
  Actual:   Result=0x00000028, Flags=Z:0 C:0 O:0 S:0
Time=299000 | Enable=0 | Ready=1 | Result=0x00000028 | Error=0 | Flags=Z:0 C:0 O:0 S:0
Time=301000 | Enable=1 | Ready=1 | Result=0x00000044 | Error=0 | Flags=Z:0 C:0 O:0 S:0
Time=303000 | Enable=1 | Ready=1 | Result=0xfffe0045 | Error=0 | Flags=Z:0 C:0 O:0 S:1
[FAIL] MAC Large:
  Expected: Result=0xfffe0002, Flags=Z:0 C:0 O:0 S:1
  Actual:   Result=0xfffe0045, Flags=Z:0 C:0 O:0 S:1
Time=305000 | Enable=0 | Ready=1 | Result=0xfffe0045 | Error=0 | Flags=Z:0 C:0 O:0 S:1
Time=307000 | Enable=1 | Ready=1 | Result=0x0000ffff | Error=0 | Flags=Z:0 C:0 O:0 S:0
Time=309000 | Enable=1 | Ready=1 | Result=0x00000006 | Error=0 | Flags=Z:0 C:0 O:0 S:0
[PASS] MaxPool TC-6: Result=0x00000006, Flags=Z:0 C:0 O:0 S:0
Time=311000 | Enable=0 | Ready=1 | Result=0x00000006 | Error=0 | Flags=Z:0 C:0 O:0 S:0
Time=313000 | Enable=1 | Ready=1 | Result=0x00000006 | Error=0 | Flags=Z:0 C:0 O:0 S:0
Time=315000 | Enable=1 | Ready=1 | Result=0x00000005 | Error=0 | Flags=Z:0 C:0 O:0 S:0
[PASS] MaxPool Equal: Result=0x00000005, Flags=Z:0 C:0 O:0 S:0
Time=317000 | Enable=0 | Ready=1 | Result=0x00000005 | Error=0 | Flags=Z:0 C:0 O:0 S:0
Time=319000 | Enable=1 | Ready=1 | Result=0x00000005 | Error=0 | Flags=Z:0 C:0 O:0 S:0
Time=321000 | Enable=1 | Ready=1 | Result=0xfffffffe | Error=0 | Flags=Z:0 C:0 O:0 S:1
[PASS] MaxPool Negative: Result=0xfffffffe, Flags=Z:0 C:0 O:0 S:1
Time=323000 | Enable=0 | Ready=1 | Result=0xfffffffe | Error=0 | Flags=Z:0 C:0 O:0 S:1
Time=325000 | Enable=1 | Ready=1 | Result=0x7ffffffd | Error=0 | Flags=Z:0 C:0 O:0 S:0
Time=327000 | Enable=1 | Ready=1 | Result=0x00000004 | Error=0 | Flags=Z:0 C:0 O:0 S:0
[PASS] AvgPool TC-7: Result=0x00000004, Flags=Z:0 C:0 O:0 S:0
Time=329000 | Enable=0 | Ready=1 | Result=0x00000004 | Error=0 | Flags=Z:0 C:0 O:0 S:0
Time=331000 | Enable=1 | Ready=1 | Result=0x00000004 | Error=0 | Flags=Z:0 C:0 O:0 S:0
Time=333000 | Enable=1 | Ready=1 | Result=0x00000001 | Error=0 | Flags=Z:0 C:0 O:0 S:0
[PASS] AvgPool Odd: Result=0x00000001, Flags=Z:0 C:0 O:0 S:0
Time=335000 | Enable=0 | Ready=1 | Result=0x00000001 | Error=0 | Flags=Z:0 C:0 O:0 S:0
Time=337000 | Enable=1 | Ready=1 | Result=0x00000001 | Error=0 | Flags=Z:0 C:0 O:0 S:0
Time=339000 | Enable=1 | Ready=1 | Result=0x00000000 | Error=0 | Flags=Z:1 C:0 O:0 S:0
[FAIL] AvgPool Large:
  Expected: Result=0x80000000, Flags=Z:0 C:0 O:0 S:1
  Actual:   Result=0x00000000, Flags=Z:1 C:0 O:0 S:0
Time=341000 | Enable=0 | Ready=1 | Result=0x00000000 | Error=0 | Flags=Z:1 C:0 O:0 S:0

Starting Edge Case and Error Condition Tests...
Time=343000 | Enable=1 | Ready=1 | Result=0x00000000 | Error=0 | Flags=Z:1 C:0 O:0 S:0
Time=345000 | Enable=1 | Ready=1 | Result=0x00000000 | Error=0 | Flags=Z:1 C:0 O:0 S:0
[PASS] Invalid Opcode: Result=0x00000000, Flags=Z:1 C:0 O:0 S:0
Time=347000 | Enable=0 | Ready=1 | Result=0x00000000 | Error=0 | Flags=Z:1 C:0 O:0 S:0
Time=349000 | Enable=1 | Ready=1 | Result=0x00000000 | Error=0 | Flags=Z:1 C:0 O:0 S:0
Time=351000 | Enable=1 | Ready=1 | Result=0x00000000 | Error=0 | Flags=Z:1 C:0 O:0 S:0
[PASS] Invalid Funct3: Result=0x00000000, Flags=Z:1 C:0 O:0 S:0
Time=353000 | Enable=0 | Ready=1 | Result=0x00000000 | Error=0 | Flags=Z:1 C:0 O:0 S:0
Time=355000 | Enable=1 | Ready=1 | Result=0x00000003 | Error=0 | Flags=Z:0 C:0 O:0 S:0
Time=357000 | Enable=1 | Ready=1 | Result=0xfffffffe | Error=0 | Flags=Z:0 C:1 O:0 S:1
[PASS] Max Values ADD: Result=0xfffffffe, Flags=Z:0 C:1 O:0 S:1
Time=359000 | Enable=0 | Ready=1 | Result=0xfffffffe | Error=0 | Flags=Z:0 C:1 O:0 S:1
Time=361000 | Enable=1 | Ready=1 | Result=0x00000000 | Error=0 | Flags=Z:1 C:0 O:0 S:0
Time=363000 | Enable=1 | Ready=1 | Result=0x7fffffff | Error=0 | Flags=Z:0 C:0 O:1 S:0
[FAIL] Min Values SUB:
  Expected: Result=0x7fffffff, Flags=Z:0 C:1 O:1 S:0
  Actual:   Result=0x7fffffff, Flags=Z:0 C:0 O:1 S:0
Time=365000 | Enable=0 | Ready=1 | Result=0x7fffffff | Error=0 | Flags=Z:0 C:0 O:1 S:0
Time=367000 | Enable=1 | Ready=1 | Result=0x00000000 | Error=0 | Flags=Z:1 C:0 O:0 S:0
Time=369000 | Enable=1 | Ready=1 | Result=0x80000000 | Error=0 | Flags=Z:0 C:0 O:0 S:1
[PASS] Shift Max: Result=0x80000000, Flags=Z:0 C:0 O:0 S:1
Time=371000 | Enable=0 | Ready=1 | Result=0x80000000 | Error=0 | Flags=Z:0 C:0 O:0 S:1
[FAIL] Enable=0 Test: ALU should be disabled

Starting Comprehensive Coverage Tests...
Time=377000 | Enable=1 | Ready=1 | Result=0x00000000 | Error=0 | Flags=Z:1 C:0 O:0 S:0
Time=379000 | Enable=1 | Ready=1 | Result=0x00000001 | Error=0 | Flags=Z:0 C:0 O:0 S:0
[PASS] SLTI: Result=0x00000001, Flags=Z:0 C:0 O:0 S:0
Time=381000 | Enable=0 | Ready=1 | Result=0x00000001 | Error=0 | Flags=Z:0 C:0 O:0 S:0
Time=383000 | Enable=1 | Ready=1 | Result=0x00000001 | Error=0 | Flags=Z:0 C:0 O:0 S:0
Time=385000 | Enable=1 | Ready=1 | Result=0x00000001 | Error=0 | Flags=Z:0 C:0 O:0 S:0
[PASS] SLTIU: Result=0x00000001, Flags=Z:0 C:0 O:0 S:0
Time=387000 | Enable=0 | Ready=1 | Result=0x00000001 | Error=0 | Flags=Z:0 C:0 O:0 S:0
Time=389000 | Enable=1 | Ready=1 | Result=0x00000015 | Error=0 | Flags=Z:0 C:0 O:0 S:0
Time=391000 | Enable=1 | Ready=1 | Result=0xffff5555 | Error=0 | Flags=Z:0 C:0 O:0 S:1
[PASS] XORI: Result=0xffff5555, Flags=Z:0 C:0 O:0 S:1
Time=393000 | Enable=0 | Ready=1 | Result=0xffff5555 | Error=0 | Flags=Z:0 C:0 O:0 S:1
